{
    "count": 14380,
    "next": "http://localhost:8000/samples/?limit=25&offset=25",
    "previous": null,
    "results": [
        {
            "id": 1,
            "accession_code": "GSM414087 1",
            "organism": {
                "name": "HOMO_SAPIENS",
                "taxonomy_id": 9606
            },
            "is_downloaded": false,
            "is_processed": false,
            "created_at": "2018-03-26T18:32:22.202424Z",
            "last_modified": "2018-03-26T18:32:22.202436Z"
        },
        {
            "id": 2,
            "accession_code": "GSM414086 1",
            "organism": {
                "name": "HOMO_SAPIENS",
                "taxonomy_id": 9606
            },
            "is_downloaded": false,
            "is_processed": false,
            "created_at": "2018-03-26T18:32:22.218357Z",
            "last_modified": "2018-03-26T18:32:22.218366Z"
        },
        {
            "id": 3,
            "accession_code": "GSM414085 1",
            "organism": {
                "name": "HOMO_SAPIENS",
                "taxonomy_id": 9606
            },
            "is_downloaded": false,
            "is_processed": false,
            "created_at": "2018-03-26T18:32:22.232958Z",
            "last_modified": "2018-03-26T18:32:22.232966Z"
        },
        {
            "id": 4,
            "accession_code": "GSM414084 1",
            "organism": {
                "name": "HOMO_SAPIENS",
                "taxonomy_id": 9606
            },
            "is_downloaded": false,
            "is_processed": false,
            "created_at": "2018-03-26T18:32:22.247782Z",
            "last_modified": "2018-03-26T18:32:22.247791Z"
        },
        {
            "id": 5,
            "accession_code": "GSM414083 1",
            "organism": {
                "name": "HOMO_SAPIENS",
                "taxonomy_id": 9606
            },
            "is_downloaded": false,
            "is_processed": false,
            "created_at": "2018-03-26T18:32:22.262289Z",
            "last_modified": "2018-03-26T18:32:22.262297Z"
        },
        {
            "id": 6,
            "accession_code": "GSM414082 1",
            "organism": {
                "name": "HOMO_SAPIENS",
                "taxonomy_id": 9606
            },
            "is_downloaded": false,
            "is_processed": false,
            "created_at": "2018-03-26T18:32:22.276400Z",
            "last_modified": "2018-03-26T18:32:22.276409Z"
        },
        {
            "id": 7,
            "accession_code": "GSM414081 1",
            "organism": {
                "name": "HOMO_SAPIENS",
                "taxonomy_id": 9606
            },
            "is_downloaded": false,
            "is_processed": false,
            "created_at": "2018-03-26T18:32:22.293339Z",
            "last_modified": "2018-03-26T18:32:22.293347Z"
        },
        {
            "id": 8,
            "accession_code": "GSM414080 1",
            "organism": {
                "name": "HOMO_SAPIENS",
                "taxonomy_id": 9606
            },
            "is_downloaded": false,
            "is_processed": false,
            "created_at": "2018-03-26T18:32:22.306518Z",
            "last_modified": "2018-03-26T18:32:22.306526Z"
        },
        {
            "id": 9,
            "accession_code": "GSM414079 1",
            "organism": {
                "name": "HOMO_SAPIENS",
                "taxonomy_id": 9606
            },
            "is_downloaded": false,
            "is_processed": false,
            "created_at": "2018-03-26T18:32:22.319524Z",
            "last_modified": "2018-03-26T18:32:22.319533Z"
        },
        {
            "id": 10,
            "accession_code": "GSM414078 1",
            "organism": {
                "name": "HOMO_SAPIENS",
                "taxonomy_id": 9606
            },
            "is_downloaded": false,
            "is_processed": false,
            "created_at": "2018-03-26T18:32:22.332819Z",
            "last_modified": "2018-03-26T18:32:22.332828Z"
        },
        {
            "id": 11,
            "accession_code": "GSM414077 1",
            "organism": {
                "name": "HOMO_SAPIENS",
                "taxonomy_id": 9606
            },
            "is_downloaded": false,
            "is_processed": false,
            "created_at": "2018-03-26T18:32:22.347011Z",
            "last_modified": "2018-03-26T18:32:22.347019Z"
        },
        {
            "id": 12,
            "accession_code": "GSM414076 1",
            "organism": {
                "name": "HOMO_SAPIENS",
                "taxonomy_id": 9606
            },
            "is_downloaded": false,
            "is_processed": false,
            "created_at": "2018-03-26T18:32:22.360487Z",
            "last_modified": "2018-03-26T18:32:22.360497Z"
        },
        {
            "id": 13,
            "accession_code": "GSM414075 1",
            "organism": {
                "name": "HOMO_SAPIENS",
                "taxonomy_id": 9606
            },
            "is_downloaded": false,
            "is_processed": false,
            "created_at": "2018-03-26T18:32:22.374278Z",
            "last_modified": "2018-03-26T18:32:22.374286Z"
        },
        {
            "id": 14,
            "accession_code": "GSM414074 1",
            "organism": {
                "name": "HOMO_SAPIENS",
                "taxonomy_id": 9606
            },
            "is_downloaded": false,
            "is_processed": false,
            "created_at": "2018-03-26T18:32:22.389954Z",
            "last_modified": "2018-03-26T18:32:22.389962Z"
        },
        {
            "id": 15,
            "accession_code": "GSM414073 1",
            "organism": {
                "name": "HOMO_SAPIENS",
                "taxonomy_id": 9606
            },
            "is_downloaded": false,
            "is_processed": false,
            "created_at": "2018-03-26T18:32:22.403735Z",
            "last_modified": "2018-03-26T18:32:22.403744Z"
        },
        {
            "id": 16,
            "accession_code": "GSM414072 1",
            "organism": {
                "name": "HOMO_SAPIENS",
                "taxonomy_id": 9606
            },
            "is_downloaded": false,
            "is_processed": false,
            "created_at": "2018-03-26T18:32:22.417501Z",
            "last_modified": "2018-03-26T18:32:22.417510Z"
        },
        {
            "id": 17,
            "accession_code": "GSM414071 1",
            "organism": {
                "name": "HOMO_SAPIENS",
                "taxonomy_id": 9606
            },
            "is_downloaded": false,
            "is_processed": false,
            "created_at": "2018-03-26T18:32:22.431078Z",
            "last_modified": "2018-03-26T18:32:22.431086Z"
        },
        {
            "id": 18,
            "accession_code": "GSM414070 1",
            "organism": {
                "name": "HOMO_SAPIENS",
                "taxonomy_id": 9606
            },
            "is_downloaded": false,
            "is_processed": false,
            "created_at": "2018-03-26T18:32:22.448838Z",
            "last_modified": "2018-03-26T18:32:22.448847Z"
        },
        {
            "id": 19,
            "accession_code": "GSM414069 1",
            "organism": {
                "name": "HOMO_SAPIENS",
                "taxonomy_id": 9606
            },
            "is_downloaded": false,
            "is_processed": false,
            "created_at": "2018-03-26T18:32:22.463892Z",
            "last_modified": "2018-03-26T18:32:22.463919Z"
        },
        {
            "id": 20,
            "accession_code": "GSM414068 1",
            "organism": {
                "name": "HOMO_SAPIENS",
                "taxonomy_id": 9606
            },
            "is_downloaded": false,
            "is_processed": false,
            "created_at": "2018-03-26T18:32:22.477951Z",
            "last_modified": "2018-03-26T18:32:22.477960Z"
        },
        {
            "id": 21,
            "accession_code": "GSM414067 1",
            "organism": {
                "name": "HOMO_SAPIENS",
                "taxonomy_id": 9606
            },
            "is_downloaded": false,
            "is_processed": false,
            "created_at": "2018-03-26T18:32:22.491405Z",
            "last_modified": "2018-03-26T18:32:22.491414Z"
        },
        {
            "id": 22,
            "accession_code": "GSM414066 1",
            "organism": {
                "name": "HOMO_SAPIENS",
                "taxonomy_id": 9606
            },
            "is_downloaded": false,
            "is_processed": false,
            "created_at": "2018-03-26T18:32:22.505200Z",
            "last_modified": "2018-03-26T18:32:22.505209Z"
        },
        {
            "id": 23,
            "accession_code": "GSM414065 1",
            "organism": {
                "name": "HOMO_SAPIENS",
                "taxonomy_id": 9606
            },
            "is_downloaded": false,
            "is_processed": false,
            "created_at": "2018-03-26T18:32:22.519381Z",
            "last_modified": "2018-03-26T18:32:22.519390Z"
        },
        {
            "id": 24,
            "accession_code": "GSM414064 1",
            "organism": {
                "name": "HOMO_SAPIENS",
                "taxonomy_id": 9606
            },
            "is_downloaded": false,
            "is_processed": false,
            "created_at": "2018-03-26T18:32:22.534185Z",
            "last_modified": "2018-03-26T18:32:22.534194Z"
        },
        {
            "id": 25,
            "accession_code": "GSM414063 1",
            "organism": {
                "name": "HOMO_SAPIENS",
                "taxonomy_id": 9606
            },
            "is_downloaded": false,
            "is_processed": false,
            "created_at": "2018-03-26T18:32:22.548762Z",
            "last_modified": "2018-03-26T18:32:22.548770Z"
        }
    ]
}
